<?xml version="1.0" encoding="UTF-8"?>
<testng-results ignored="0" total="3" passed="3" failed="0" skipped="0">
  <reporter-output>
  </reporter-output>
  <suite started-at="2023-07-29T00:55:23 COT" name="Smoke" finished-at="2023-07-29T00:56:04 COT" duration-ms="40867">
    <groups>
    </groups>
    <test started-at="2023-07-29T00:55:23 COT" name="SpotifyTests-Smoke" finished-at="2023-07-29T00:56:04 COT" duration-ms="40867">
      <class name="tests.smoke.Smoke">
        <test-method is-config="true" signature="setUp()[pri:0, instance:tests.smoke.Smoke@43301423]" started-at="2023-07-29T00:55:23 COT" name="setUp" finished-at="2023-07-29T00:55:27 COT" duration-ms="3671" status="PASS">
          <reporter-output>
          </reporter-output>
        </test-method> <!-- setUp -->
        <test-method signature="emptyPassword()[pri:0, instance:tests.smoke.Smoke@43301423]" started-at="2023-07-29T00:55:27 COT" name="emptyPassword" finished-at="2023-07-29T00:55:43 COT" duration-ms="16883" status="PASS">
          <reporter-output>
          </reporter-output>
        </test-method> <!-- emptyPassword -->
        <test-method is-config="true" signature="finishBrowser()[pri:0, instance:tests.smoke.Smoke@43301423]" started-at="2023-07-29T00:55:43 COT" name="finishBrowser" finished-at="2023-07-29T00:55:44 COT" duration-ms="234" status="PASS">
          <reporter-output>
          </reporter-output>
        </test-method> <!-- finishBrowser -->
        <test-method is-config="true" signature="setUp()[pri:0, instance:tests.smoke.Smoke@43301423]" started-at="2023-07-29T00:55:44 COT" name="setUp" finished-at="2023-07-29T00:55:45 COT" duration-ms="807" status="PASS">
          <reporter-output>
          </reporter-output>
        </test-method> <!-- setUp -->
        <test-method signature="invalidPassword()[pri:0, instance:tests.smoke.Smoke@43301423]" started-at="2023-07-29T00:55:45 COT" name="invalidPassword" finished-at="2023-07-29T00:55:53 COT" duration-ms="8116" status="PASS">
          <reporter-output>
          </reporter-output>
        </test-method> <!-- invalidPassword -->
        <test-method is-config="true" signature="finishBrowser()[pri:0, instance:tests.smoke.Smoke@43301423]" started-at="2023-07-29T00:55:53 COT" name="finishBrowser" finished-at="2023-07-29T00:55:53 COT" duration-ms="248" status="PASS">
          <reporter-output>
          </reporter-output>
        </test-method> <!-- finishBrowser -->
        <test-method is-config="true" signature="setUp()[pri:0, instance:tests.smoke.Smoke@43301423]" started-at="2023-07-29T00:55:53 COT" name="setUp" finished-at="2023-07-29T00:55:54 COT" duration-ms="820" status="PASS">
          <reporter-output>
          </reporter-output>
        </test-method> <!-- setUp -->
        <test-method signature="validLoginPassword()[pri:0, instance:tests.smoke.Smoke@43301423]" started-at="2023-07-29T00:55:54 COT" name="validLoginPassword" finished-at="2023-07-29T00:56:03 COT" duration-ms="9763" status="PASS">
          <reporter-output>
          </reporter-output>
        </test-method> <!-- validLoginPassword -->
        <test-method is-config="true" signature="finishBrowser()[pri:0, instance:tests.smoke.Smoke@43301423]" started-at="2023-07-29T00:56:03 COT" name="finishBrowser" finished-at="2023-07-29T00:56:04 COT" duration-ms="268" status="PASS">
          <reporter-output>
          </reporter-output>
        </test-method> <!-- finishBrowser -->
      </class> <!-- tests.smoke.Smoke -->
    </test> <!-- SpotifyTests-Smoke -->
  </suite> <!-- Smoke -->
</testng-results>
